[{
 "attackname": "goldeneye",
 "attackid": "10",
 "state":"notExecuted",
 "step": "notExecuted",
 "typeattack": "goldeneye",
 "resultsid": "",
 "errormsg":"",
 "dockerimage" : "registry.gitlab.com/huntdownupc/attacks/goldeneye:latest",
 "os_type": "debian",
 "runnertype":"vagrant",
 "dependencies": [
  {
   "key": "goldeneye",
   "size": "4MB"
  }
 ],
 "clicommands": [
  {
   "action": "wget https://gitlab.com/HuntDownUPC/HuntDown/-/raw/fran_branch/scripts/goldeneye.sh",
   "optionsid": "",
   "options": "",
   "redirectstdin": "",
   "redirectstdout": "",
   "redirectstderr": "",
   "pipe": false,
   "backgroundjob": false,
   "conncatenatecommands": false,
   "timeout": "",
   "fileoutput": false,
   "outputtype": "",
   "needresults": false
  },
  {
   "action": "/bin/bash ./goldeneye.sh",
   "optionsid": "goldeneye01",
   "options": "",
   "redirectstdin": "",
   "redirectstdout": "",
   "redirectstderr": "",
   "pipe": false,
   "backgroundjob": false,
   "conncatenatecommands": false,
   "timeout": "",
   "fileoutput": false,
   "outputtype": "",
   "needresults": true
  }
 ]
}]
