[
  {
    "name": "wfuzz",
    "optionsid": "wfuzz01",
    "optionsname": "",
    "delimiter": "space",
    "options": [
      {
        "title": "Output with colors",
        "maingroup": "Optional",
        "subgroup": "",
        "flag": "-c",
        "value": "",
        "needcheckbox": true,
        "checkbox": true,
        "textinput": false,
        "information": "Enable colored output",
        "formattype": "switch",
        "regex": ""
      },
      {
        "title": "Verbose information",
        "maingroup": "Optional",
        "subgroup": "",
        "flag": "-v",
        "value": "",
        "needcheckbox": true,
        "checkbox": true,
        "textinput": false,
        "information": "Enable verbose output",
        "formattype": "switch",
        "regex": ""
      },
      {
        "title": "Number of concurrent connections",
        "maingroup": "Optional",
        "subgroup": "",
        "flag": "-t",
        "value": "",
        "needcheckbox": true,
        "checkbox": false,
        "textinput": true,
        "information": "Specify the number of concurrent connections",
        "formattype": "switch-textbox",
        "regex": "XiR7MSw5fSQ="
      },
      {
        "title": "Time delay between requests",
        "maingroup": "Optional",
        "subgroup": "",
        "flag": "-s",
        "value": "",
        "needcheckbox": true,
        "checkbox": false,
        "textinput": true,
        "information": "Specify time delay between requests",
        "formattype": "switch-textbox",
        "regex": "XiR7MSw5fSQ="
      },
      {
        "title": "Recursive path discovery",
        "maingroup": "Optional",
        "subgroup": "",
        "flag": "-R",
        "value": "",
        "needcheckbox": true,
        "checkbox": false,
        "textinput": false,
        "information": "Recursive path discovery with depth limit",
        "formattype": "switch-textbox",
        "regex": ""
      },
      {
        "title": "Follow HTTP redirections",
        "maingroup": "Optional",
        "subgroup": "",
        "flag": "-L",
        "value": "",
        "needcheckbox": true,
        "checkbox": false,
        "textinput": false,
        "information": "Follow HTTP redirections",
        "formattype": "switch",
        "regex": ""
      },
      {
        "title": "HTTP method",
        "maingroup": "Optional",
        "subgroup": "",
        "flag": "-X",
        "value": "",
        "needcheckbox": true,
        "checkbox": false,
        "textinput": true,
        "information": "Specify an HTTP method for the request",
        "formattype": "switch-textbox",
        "regex": "XihHRVQgfCBQT1NUIHwgUFVUIHwgREFMRVRFKSQ="
      },
      {
        "title": "Show responses with specified code",
        "maingroup": "Optional",
        "subgroup": "",
        "flag": "--sc",
        "value": "",
        "needcheckbox": true,
        "checkbox": false,
        "textinput": true,
        "information": "Show responses with the specified HTTP code(s)",
        "formattype": "switch-textbox",
        "regex": "XlxkKyQ="
      },
      {
        "title": "Hide responses with specified code",
        "maingroup": "Optional",
        "subgroup": "",
        "flag": "--hc",
        "value": "",
        "needcheckbox": true,
        "checkbox": false,
        "textinput": true,
        "information": "Hide responses with the specified HTTP code(s)",
        "formattype": "switch-textbox",
        "regex": "XlxkKyQ="
      },{
        "title": "Specify URL",
        "maingroup": "Required",
        "subgroup": "",
        "flag": "",
        "value": "",
        "needcheckbox": false,
        "checkbox": false,
        "textinput": true,
        "information": "Specify a URL for the request",
        "formattype": "text",
        "regex": "Lio="
      },{
        "title": "Payloads",
        "maingroup": "Required",
        "subgroup": "",
        "flag": "-z",
        "value": "",
        "needcheckbox": false,
        "checkbox": false,
        "textinput": true,
        "information": "Specify payloads for the request. Ex: -z file,wordlist/others/common_pass.txt",
        "formattype": "text",
        "regex": "Lio="
      }
    ]
  }
]
