[
    {
        "name": "fierce",
        "optionsid": "fierce01",
        "optionsname": "",
        "options": [
            {
                "title": "Domain",
                "maingroup": "Required",
                "subgroup": "",
                "flag": "--domain",
                "value": "",
                "needcheckbox": false,
                "checkbox": false,
                "textinput": true,
                "information": "Target domain",
                "regex": "XihbYS16QS1aMC05XShbYS16QS1aMC05XC1dezAsNjF9W2EtekEtWjAtOV0pP1wuKStbYS16QS1aXXsyLDZ9JA==",
                "formattype": "text"
            },
            {
                "title": "Connect",
                "maingroup": "General Options",
                "subgroup": "",
                "flag": "--connect",
                "value": "",
                "needcheckbox": true,
                "checkbox": false,
                "textinput": false,
                "information": "attempt HTTP connection to non-RFC 1918 hosts.",
                "regex": "",
                "formattype": "switch-textbox"
            },
            {
                "title": "Wide",
                "maingroup": "General Options",
                "subgroup": "",
                "flag": "--wide",
                "value": "",
                "needcheckbox": true,
                "checkbox": false,
                "textinput": false,
                "information": "scan entire class c of discovered records.",
                "regex": "",
                "formattype": "switch"
            },
            {
                "title": "Traverse",
                "maingroup": "General Options",
                "subgroup": "",
                "flag": "--traverse",
                "value": "",
                "needcheckbox": true,
                "checkbox": false,
                "textinput": true,
                "information": "scan IPs near discovered records, this won't enter adjacent class c's.",
                "regex": "XlteJnxdKiQ=",
                "formattype": "switch-textbox"
            },
            {
                "title": "Search",
                "maingroup": "General Options",
                "subgroup": "",
                "flag": "--search",
                "value": "",
                "needcheckbox": true,
                "checkbox": false,
                "textinput": true,
                "information": "filter on these domains when expanding lookup.",
                "regex": "XlteJnxdKiQ=",
                "formattype": "switch-textbox"
            },
            {
                "title": "DNS servers",
                "maingroup": "General Options",
                "subgroup": "",
                "flag": "--dns-servers",
                "value": "",
                "needcheckbox": true,
                "checkbox": false,
                "textinput": true,
                "information": "use these dns servers for reverse lookups.",
                "regex": "XlteJnxdKiQ=",
                "formattype": "switch-textbox"
            },
            {
                "title": "Range",
                "maingroup": "General Options",
                "subgroup": "",
                "flag": "--range",
                "value": "",
                "needcheckbox": true,
                "checkbox": false,
                "textinput": true,
                "information": "Scan an ip range, only when you are using the option dns-servers",
                "regex": "XlteJnxdKiQ=",
                "formattype": "switch-textbox"
            },
            {
                "title": "Delay",
                "maingroup": "General Options",
                "subgroup": "",
                "flag": "--delay",
                "value": "",
                "needcheckbox": true,
                "checkbox": false,
                "textinput": true,
                "information": "Delay time between lookups.",
                "regex": "XlteJnxdKiQ=",
                "formattype": "switch-textbox"
            },
            {
                "title": "Subdomains",
                "maingroup": "General Options",
                "subgroup": "",
                "flag": "--subdomains",
                "value": "",
                "needcheckbox": true,
                "checkbox": false,
                "textinput": true,
                "information": "use these subdomains.",
                "regex": "XlteJnxdKiQ=",
                "formattype": "switch-textbox"
            },
            {
                "title": "Tcp",
                "maingroup": "General Options",
                "subgroup": "",
                "flag": "--tcp",
                "value": "",
                "needcheckbox": true,
                "checkbox": false,
                "textinput": false,
                "information": "use TCP instead of UDP.",
                "regex": "",
                "formattype": "switch"
            }
        ]
    }
]