[{
    "attackname": "nuclei",
    "attackid": "22",
    "state":"notExecuted",
    "step": "notExecuted",
    "typeattack": "nuclei",
    "resultsid": "",
    "errormsg":"",
    "os_type": "debian",
    "runnertype":"docker",
    "dockerimage": "projectdiscovery/nuclei",
    "dependencies": [
     {
      "key": "nuclei",
      "size": "1MB"
     }
    ],
    "clicommands": [
     {
      "action": "nuclei -silent -nc",
      "optionsid": "nuclei01",
      "options": "",
      "redirectstdin": "",
      "redirectstdout": "",
      "redirectstderr": "",
      "pipe": false,
      "backgroundjob": false,
      "conncatenatecommands": false,
      "timeout": "",
      "fileoutput": false,
      "outputtype": "JSON",
      "needresults": true
     }
    ]
   }]
   
