[
  {
    "mandatoryUserOptions": [
      "IP/Host"
    ],
    "preset": "fierce_basic",
    "attackName": "fierce",
    "description": "fierce Basic Subnetwork Scan. Base command: fierce --domain <IP/Host>",
    "options": {},
    "userOptions": [
      "IP/Host"
    ]
  },
  {
    "description": "nmap Port Discovery. Base command: nmap -T5 -n -p 1-5000",
    "attackName": "nmap",
    "options": {
      "No DNS": {
        "type": "boolean",
        "description": "Disable DNS resolution",
        "value": ""
      },
      "Ports": {
        "type": "string",
        "description": "Ports that will be scanned",
        "value": "1-5000"
      },
      "Timing mode": {
        "type": "string",
        "description": "Timing mode",
        "value": "5"
      }
    },
    "userOptions": [
      "IP/Host"
    ],
    "mandatoryUserOptions": [
      "IP/Host"
    ],
    "preset": "nmap_port_discovery"
  },
  {
    "preset": "nmap_test",
    "attackName": "nmap",
    "description": "nmap test",
    "options": {
      "Ports": {
        "type": "string",
        "description": "Ports that will be scanned",
        "value": "53"
      }
    },
    "mandatoryUserOptions": [
      "IP/Host"
    ],
    "userOptions": [
      "IP/Host"
    ]
  },
  {
    "preset": "nmap_detailed_scan",
    "attackName": "nmap",
    "description": "nmap Detailed Single IP Scan. Base command: nmap -T4 -A -n -p1-65535",
    "options": {
      "Timing mode": {
        "type": "string",
        "description": "Timing mode",
        "value": "4"
      },
      "No DNS": {
        "value": "",
        "type": "boolean",
        "description": "Disable DNS resolution"
      },
      "Ports": {
        "type": "string",
        "description": "Ports that will be scanned",
        "value": "1-65535"
      },
      "Aggressive Scan": {
        "type": "boolean",
        "description": "Enable aggressive scan options",
        "value": ""
      }
    },
    "mandatoryUserOptions": [
      "IP/Host"
    ],
    "userOptions": [
      "IP/Host"
    ]
  },
  {
    "mandatoryUserOptions": [
      "IP/Host"
    ],
    "preset": "nikto_basic",
    "attackName": "nikto",
    "description": "Nikto Basic Vulnerability Scan. Base command: nikto -h <IP/Host>",
    "options": {},
    "userOptions": [
      "IP/Host"
    ]
  },
  {
    "preset": "nikto_ssl",
    "attackName": "nikto",
    "description": "Nikto SSL Vulnerability Scan. Base command: nikto -ssl -h <IP/Host>",
    "options": {
      "Enable SSL": {
        "value": "",
        "type": "boolean",
        "description": "Use SSL for the connection"
      }
    },
    "userOptions": [
      "IP/Host"
    ],
    "mandatoryUserOptions": [
      "IP/Host"
    ]
  },
  {
    "preset": "hydra_basic",
    "description": "hydra SSH basic Bruteforcing. Base command: hydra -f -l <Username> <Target Servie and Host>",
    "attackName": "hydra",
    "userOptions": [
      "Username",
      "Target Servie and Host"
    ],
    "options": {
      "Fast Exit": {
        "type": "boolean",
        "description": "Execution is finished once the fist pair of correct credentials are found.",
        "value": ""
      }
    },
    "mandatoryUserOptions": [
      "Username",
      "Target Servie and Host"
    ]
  },
  {
    "preset": "nmap_udp_scan",
    "description": "Nmap UDP Scan. Base command: nmap -sU -T5 -n <IP> -p150-300",
    "attackName": "nmap",
    "userOptions": [
      "IP/Host"
    ],
    "options": {
      "Timing mode": {
        "description": "Timing mode",
        "value": "5",
        "type": "string"
      },
      "No DNS": {
        "type": "boolean",
        "description": "Disable DNS resolution",
        "value": ""
      },
      "sU": {
        "type": "boolean",
        "description": "UDP port scan",
        "value": ""
      },
      "Ports": {
        "type": "string",
        "description": "UDP ports that will be scanned",
        "value": "150-300"
      }
    },
    "mandatoryUserOptions": [
      "IP/Host"
    ]
  },
  {
    "options": {},
    "mandatoryUserOptions": [
      "IP/Host"
    ],
    "preset": "traceroute_basic",
    "description": "Traceroute Basic Scan. Base command: traceroute <IP>",
    "attackName": "traceroute",
    "userOptions": [
      "IP/Host"
    ]
  },
  {
    "userOptions": [
      "IP/Url",
      "Api token"
    ],
    "options": {},
    "mandatoryUserOptions": [
      "IP/Url"
    ],
    "preset": "wpscan_basic",
    "description": "wpscan Basic Scan. Base command: wpscan --url <IP>",
    "attackName": "wpscan"
  },
  {
    "options": {},
    "mandatoryUserOptions": [
      "IP/Host",
      "Ports"
    ],
    "preset": "nc_basic",
    "description": "netcat Basic Scan. Base command: nc <IP> <ports>",
    "attackName": "netcat",
    "userOptions": [
      "IP/Host",
      "Ports"
    ]
  },
  {
      "preset": "hping3_basicICMP",
      "description": "hping3 Basic ICMP ping. Base command: hping3 --icmp --count 1 <IP/Host>",
      "attackName":"hping3",
      "userOptions":["IP/Host"],
      "options": {
        "ICMP ping": {
          "type": "boolean",
          "description": "Perform a ICMP ping scan",
          "value": ""
        },
        "Stop After Count": {
          "type": "string",
          "description": "Stop ping after count sent packets",
          "value": "1"
        }
      },
      "mandatoryUserOptions": ["IP/Host"]
  },{
    "preset": "goldeneye_scan",
    "description": "goldeneye basic DoS Scan. Base command: -c 10 -w 10 -m get <Url>",
    "attackName":"goldeneye",
    "userOptions":["Url"],
    "options": {
      "Time Alive": {
        "type": "string",
        "description": "Duration of the attack (in seconds).",
        "value": "10"
      },
      "Workers": {
        "type": "string",
        "description": "Number of concurrent workers.",
        "value": "10"
      },
      "Method": {
        "type": "string",
        "description": "Http method to use",
        "value": "get"
      }
    },
    "mandatoryUserOptions": ["Url"]
  },{
  "preset": "slowloris_scan",
  "description": "slowloris basic DoS Scan. Base command: -c 10 -ua <IP/Host>",
  "attackName":"slowloris",
  "userOptions":["IP/Host", "Port"],
  "options": {
    "time alive": {
      "type": "string",
      "description": "Duration of the attack (in seconds).",
      "value": "10"
    },
    "Randomize user-agent": {
      "type": "boolean",
      "description": "Randomizes user-agents with each request.",
      "value": ""
    }
  },
  "mandatoryUserOptions": ["IP/Host"]
},
{
  "preset": "sqlmap_databases",
  "description": "sqlmap Database extraction. Base command: sqlmap -u <Url> --dbs --batch",
  "attackName":"sqlmap",
  "userOptions":["Url"],
  "options": {
    "dbs": {
      "type": "boolean",
      "description": "Enumerate DBMS databases",
      "value": ""
    }
  },
  "mandatoryUserOptions": ["Url"]
}
]
