[{
    "attackname": "theharvester",
    "attackid": "16",
    "state":"notExecuted",
    "step": "notExecuted",
    "typeattack": "theharvester",
    "resultsid": "",
    "errormsg":"",
    "os_type": "kali",
    "runnertype":"vagrant",
    "dependencies": [
     {
      "key": "theharvester",
      "size": "1MB"
     }
    ],
    "clicommands": [ 
        {
        "action": "rm -f theharvester.sh",
        "optionsid": "",
        "options": "",
        "redirectstdin": "",
        "redirectstdout": "",
        "redirectstderr": "",
        "pipe": false,
        "backgroundjob": false,
        "conncatenatecommands": false,
        "timeout": "",
        "fileoutput": false,
        "outputtype": "",
        "needresults": false
       },
        
        {
        "action": "wget https://gitlab.com/HuntDownUPC/HuntDown/-/raw/jordi-sole/scripts/theharvester.sh",
        "optionsid": "",
        "options": "",
        "redirectstdin": "",
        "redirectstdout": "",
        "redirectstderr": "",
        "pipe": false,
        "backgroundjob": false,
        "conncatenatecommands": false,
        "timeout": "",
        "fileoutput": false,
        "outputtype": "",
        "needresults": false
       },
      {
        "action": "sudo /bin/bash ./theharvester.sh",
        "optionsid": "theharvester01",
        "options": "",
        "redirectstdin": "",
        "redirectstdout": "",
        "redirectstderr": "",
        "pipe": false,
        "backgroundjob": false,
        "conncatenatecommands": false,
        "timeout": "",
        "fileoutput": false,
        "outputtype": "JSON",
        "needresults": true
       }
    ]
   }]
   
