[
    {
        "name": "metasploit",
        "optionsid": "metagoofil01",
        "optionsname": "",
        "options": [
            {
                "title": "Domain choice",
                "maingroup": "Required",
                "subgroup": "",
                "flag": "-d",
                "value": "",
                "needcheckbox": false,
                "checkbox": false,
                "textinput": true,
                "information": "Specify the domain which will be tested",
                "regex": "XihbYS16QS1aMC05XShbYS16QS1aMC05XC1dezAsNjF9W2EtekEtWjAtOV0pP1wuKStbYS16QS1aXXsyLDZ9JA==",
                "formattype": "text"
            },
            {
                "title": "File types choice",
                "maingroup": "Required",
                "subgroup": "",
                "flag": "-t",
                "value": "",
                "needcheckbox": false,
                "checkbox": false,
                "textinput": true,
                "information": "Select the file types we want to download. pdf,doc,xls,ppt,odp,ods,docx,xlsx,pptx or ALL",
                "regex": "XihBTEx8cGRmfGRvY3x4bHN8cHB0fG9kcHxvZHN8ZG9jeHx4bHN4fHBwdHgpKFxzKixccyoocGRmfGRvY3x4bHN8cHB0fG9kcHxvZHN8ZG9jeHx4bHN4fHBwdHgpKSok",
                "formattype": "text"
            },
            {
                "title": "Delay",
                "maingroup": "Optional",
                "subgroup": "",
                "flag": "-e",
                "value": "",
                "needcheckbox": true,
                "checkbox": false,
                "textinput": true,
                "information": "Delay (in seconds) between searches. If it's too small Google may block your IP, too big and your search may take a while. Default: 30.0",
                "regex": "XlxkKyQ=",
                "formattype": "switch-textbox"
            },
            {
                "title": "Time out",
                "maingroup": "Optional",
                "subgroup": "",
                "flag": "-i",
                "value": "",
                "needcheckbox": true,
                "checkbox": false,
                "textinput": true,
                "information": "Number of seconds to wait before timeout for unreachable/stale pages.Default: 15",
                "regex": "XlxkKyQ=",
                "formattype": "switch-textbox"
            },
            {
                "title": "Number of results",
                "maingroup": "Optional",
                "subgroup": "",
                "flag": "-l",
                "value": "",
                "needcheckbox": true,
                "checkbox": false,
                "textinput": true,
                "information": "Maximum results to search. Default: 100",
                "regex": "XlxkKyQ=",
                "formattype": "switch-textbox"
            },
            {
                "title": "File limit",
                "maingroup": "Optional",
                "subgroup": "",
                "flag": "-n",
                "value": "",
                "needcheckbox": true,
                "checkbox": false,
                "textinput": true,
                "information": "Maximum number of files to download per filetype. Default: 100",
                "regex": "XlxkKyQ=",
                "formattype": "switch-textbox"
            },
            {
                "title": "Threads limit",
                "maingroup": "Optional",
                "subgroup": "",
                "flag": "-r",
                "value": "",
                "needcheckbox": true,
                "checkbox": false,
                "textinput": true,
                "information": "Number of downloader threads. Default: 8",
                "regex": "XlxkKyQ=",
                "formattype": "switch-textbox"
            },
            {
                "title": "User agent choice",
                "maingroup": "Optional",
                "subgroup": "",
                "flag": "-u",
                "value": "",
                "needcheckbox": true,
                "checkbox": false,
                "textinput": true,
                "information": "User-Agent for file retrieval against -d domain",
                "regex": "",
                "formattype": "switch-textbox"
            }
        ]
    }
]